Write a C++ program that reads the content from a file named `flag.txt`.

The contents of the `flag.txt`:
 _____________________________________________ 
|* * * * * * * * * * _________________________|
| * * * * * * * * *  _________________________|
|* * * * * * * * * * _________________________|
| * * * * * * * * *  _________________________|
|* * * * * * * * * * _________________________|
| * * * * * * * * *  _________________________|
|* * * * * * * * * * _________________________|
|_____________________________________________|
|_____________________________________________|
|_____________________________________________|
|_____________________________________________|
|_____________________________________________|
|_____________________________________________|

After reading the contents of `flag.txt`, your program should print the
US Flag with the correct color scheme:

- White stars with a blue background
- 7 red stripes
- 6 white stripes